name: Orders
description: |-

  APIs for order management
endpoints:
  -
    custom: []
    httpMethods:
      - GET
    uri: api/orders
    metadata:
      custom: []
      groupName: Orders
      groupDescription: |-

        APIs for order management
      subgroup: ''
      subgroupDescription: ''
      title: 'Get Orders'
      description: 'Retrieve paginated orders for the authenticated user.'
      authenticated: true
      deprecated: false
    headers:
      Authorization: 'Bearer {YOUR_AUTH_TOKEN}'
      Content-Type: application/json
      Accept: application/json
    urlParameters: []
    cleanUrlParameters: []
    queryParameters:
      page:
        custom: []
        name: page
        description: 'The page number.'
        required: false
        example: 1
        type: integer
        enumValues: []
        exampleWasSpecified: true
        nullable: false
        deprecated: false
      per_page:
        custom: []
        name: per_page
        description: 'Items per page (max 100).'
        required: false
        example: 15
        type: integer
        enumValues: []
        exampleWasSpecified: true
        nullable: false
        deprecated: false
    cleanQueryParameters:
      page: 1
      per_page: 15
    bodyParameters: []
    cleanBodyParameters: []
    fileParameters: []
    responses:
      -
        custom: []
        status: 200
        content: |-
          {
            "data": [
              {
                "id": 1,
                "user_id": 1,
                "status": "pending",
                "payment_status": "completed",
                "total_amount": 150.00,
                "shipping_cost": 10.00,
                "shipping_address": {
                  "street": "123 Main St",
                  "city": "Springfield",
                  "state": "IL",
                  "zip": "62701",
                  "country": "USA"
                },
                "items": [
                  {
                    "id": 1,
                    "product_id": 1,
                    "product_name": "Fertilizante Premium",
                    "quantity": 2,
                    "unit_price": 45.00,
                    "subtotal": 90.00,
                    "image": "products/fertilizer.jpg"
                  }
                ],
                "created_at": "2024-01-15T10:30:00Z"
              }
            ],
            "links": {
              "first": "/api/orders?page=1",
              "last": "/api/orders?page=5",
              "prev": null,
              "next": "/api/orders?page=2"
            },
            "meta": {
              "current_page": 1,
              "last_page": 5,
              "per_page": 15,
              "total": 73
            }
          }
        headers: []
        description: Success
      -
        custom: []
        status: 200
        content: |-
          {
            "data": [],
            "links": {
              "first": "/api/orders?page=1",
              "last": "/api/orders?page=1",
              "prev": null,
              "next": null
            },
            "meta": {
              "current_page": 1,
              "last_page": 1,
              "per_page": 15,
              "total": 0
            }
          }
        headers: []
        description: 'No orders'
    responseFields: []
    auth:
      - headers
      - Authorization
      - 'Bearer 6g43cv8PD1aE5beadkZfhV6'
    controller: null
    method: null
    route: null
  -
    custom: []
    httpMethods:
      - GET
    uri: 'api/orders/{order_id}'
    metadata:
      custom: []
      groupName: Orders
      groupDescription: |-

        APIs for order management
      subgroup: ''
      subgroupDescription: ''
      title: 'Get Order'
      description: 'Retrieve a specific order by ID for the authenticated user.'
      authenticated: true
      deprecated: false
    headers:
      Authorization: 'Bearer {YOUR_AUTH_TOKEN}'
      Content-Type: application/json
      Accept: application/json
    urlParameters:
      order_id:
        custom: []
        name: order_id
        description: 'The ID of the order.'
        required: true
        example: 1
        type: integer
        enumValues: []
        exampleWasSpecified: false
        nullable: false
        deprecated: false
      id:
        custom: []
        name: id
        description: 'The ID of the order.'
        required: true
        example: '1'
        type: string
        enumValues: []
        exampleWasSpecified: true
        nullable: false
        deprecated: false
    cleanUrlParameters:
      order_id: 1
      id: '1'
    queryParameters: []
    cleanQueryParameters: []
    bodyParameters: []
    cleanBodyParameters: []
    fileParameters: []
    responses:
      -
        custom: []
        status: 200
        content: '{"data": {"id": 1, "user_id": 1, "status": "pending", "payment_status": "completed", "total_amount": 150.00, "shipping_cost": 10.00, "shipping_address": {"street": "123 Main St", "city": "Springfield", "state": "IL", "zip": "62701", "country": "USA"}, "items": [{"id": 1, "product_id": 1, "product_name": "Fertilizante Premium", "quantity": 2, "unit_price": 45.00, "subtotal": 90.00, "image": "products/fertilizer.jpg"}], "created_at": "2024-01-15T10:30:00Z"}}'
        headers: []
        description: Success
      -
        custom: []
        status: 403
        content: '{"message": "Forbidden"}'
        headers: []
        description: 'Order belongs to different user'
      -
        custom: []
        status: 404
        content: '{"message": "Order not found"}'
        headers: []
        description: 'Order not found'
    responseFields: []
    auth:
      - headers
      - Authorization
      - 'Bearer 6g43cv8PD1aE5beadkZfhV6'
    controller: null
    method: null
    route: null
